https://postmates.com/springboard/v1/places/0f09bf12-dc2d-482b-a474-934c1ac63fd9,Plumpjack Wine & Spirits,dbrown@plumpjack.com,415.346.9870,Debbie Brown,3201 Fillmore Street,,San Francisco,CA,94123,
https://postmates.com/springboard/v1/places/92c8c52b-c7ca-4576-8479-b3ab29db9843,Big Daddy's,francesca@brandedrestaurants.com,(212) 388-0688,Francesca Coletto,239 park ave south,,new york,NY,10003,monday-wed after 2
https://postmates.com/springboard/v1/places/684c8ba2-1ba0-42fd-b138-c29faa6c5853,little jewel of new orleans,eunah.kang@gmail.com,(323) 740-6908,eunah kang,207 ord st.,,los angeles,CA,90012,2:30-5:30 tues-thurs
https://postmates.com/springboard/v1/places/6ff5534a-235c-43e3-8d99-24ea2f855f0d,Olsons Delicatessen,olsonsdeli@gmail.com,(323) 938-0742,Camila Karlstromer,5660 W. PICO BLVD,,Los Angeles,CA,90019,"10 am - 6 pm 6/1
|10 am - 6 pm 6/2
|10 am - 6 pm 6/3"
https://postmates.com/springboard/v1/places/48e828bd-2e02-47cc-8b5e-14a0e3d64fa7,Bru Haus,jina@bruhauspub.com,(310) 473-2337,Jina Lee,11831 Wilshire Blvd.,,Los Angeles,CA,90025,2-4pm monday-thurs
https://postmates.com/springboard/v1/places/209698bd-796b-4340-bfe7-b69e31b4281f,Amorino Chelsea,federico_cutroni@yahoo.it,(646) 301-1050,Federico M. Cutroni,162 Eighth Ave,,New York,NY,10011,Any day after 11 am
https://postmates.com/springboard/v1/places/b48b82be-c09f-49ff-9797-b59f4c99dac4,Galeria,jairo@galerianyc.com,(862) 452-4364,Jairo Barros,43 Clinton street,,New york,NY,10002,3pm-5pm