https://postmates.com/springboard/v1/places/befe5e19-e309-455a-be81-9a8fd6951332,chibiscus,email@chibiscus.com,(323) 977-9877,Chef Prinya,7361 W Sunset Blvd,,Los Angeles,CA,90046,"3-5pm on 6/22,23,24"
https://postmates.com/springboard/v1/places/2ea80ac8-3653-4e26-8d44-45e635eb793a,CakeMonkey Bakery,storefront@cakemonkey.com,(323) 932-1142,Jillian or Colleen,7807 Beverly Blvd,,Los Angeles,CA,90036,"11-2 6/24
|12-3 6/26
|11-3 6/27
|10-5 6/23
|12-3 6/28
|"
https://postmates.com/springboard/v1/places/2e4e5df3-5e95-4121-8ff7-f4aefe4532b1,Alfred Coffee,ashlee@alfredcoffee.com,(971) 275-5651,Ashlee Lawson,8509 Melrose Ave,,Los Angeles,CA,90069,"2-4pm Monday 6/27/16 
|10-12pm Tuesday 6/28/16"
https://postmates.com/springboard/v1/places/e5cad174-2eb9-41c8-aadb-26b9099fe625,Goldie's,rob@goldiesla.com,(323) 677-2470,Rob,8422 W 3rd St,,Los Angeles,CA,90048,Preferably a Tuesday
https://postmates.com/springboard/v1/places/78f57b91-e4d4-44c1-9c12-454561d8c74f,Cafe Gratitude,ben@cafegratitudesocal.com,(213) 929-5580,Ben Carroll,300 South Santa Fe Avenue,Suite A,los angeles,CA,90013,Weekdays 10 a.m.-noon
https://postmates.com/springboard/v1/places/d8c11513-074a-4763-b9b7-ad03e60192e6,Basil Rice,pond@nexusus.com,(857) 919-3271,Pond,479 Harvard Street,,Brookline,MA,2446,"2:30pm-4:30pm on 6/23, 6/28, 6/30"
https://postmates.com/springboard/v1/places/8351df44-db53-4790-96d0-e0f8ed15c8f2,Sharetea,kit@shareteametreon.com,(415) 227-0888,Kit,135 4th St,,San Francisco,CA,94103,"Monday is the best day and please before they open.  The following Monday would be best and they are super busy kiosk location, so want to make sure the photos can be taken before they open and also photographer may need to bring a small table to place the drinks on to take the photos."
https://postmates.com/springboard/v1/places/08686101-c636-4b3b-90b0-7d634e96db0c,Brown Rice korean grill,brownricekgrill@gmail.com,(667) 303-3256,42548,2404 N Charles St,,Baltimore,MD,21218,3-5 on 6/27-6/28
https://postmates.com/springboard/v1/places/33a81c25-175e-423a-8c16-1723773ae637,Alforon,info@alforon.com,(619) 981-2222,George Salameht,5965 El Cajon Blvd,,San Diego,CA,92115,"Tuesday through Friday
|2 to 5 PM"
https://postmates.com/springboard/v1/places/4da35097-65c5-4c79-8ffa-f983b75fc6d7,Cafe Habana,m.davidoff@yahoo.com,(917) 562-1269,Mark Davidoff,17 Prince St,,New York,NY,10012,"Tuesday 6/28 10AM
|Thursday 6/30 10AM
|I believe I filled this out on 6/17...Please check"
https://postmates.com/springboard/v1/places/9e5560d0-d072-49b4-94b0-2d4f80271a16,Zia Pia imports,victoria@ziapia.com,(704) 441-2274,Victoria,224 E. 7th Street,,Charlotte,NC,28204,"Late July and Early August, any day."
https://postmates.com/springboard/v1/places/92419b63-94de-4150-8982-e5bae6125ad0,My Pie,ryanmitchell@pizzayourway.com,(602) 405-6465,Ryan,12601 N Tatum Blvd,,Phoenix,AZ,85032,"Tues - Weds, 11am-4pm"
https://postmates.com/springboard/v1/places/4bd828e5-d653-4275-9b9e-05daabf1d6ca,Uber Eats,henry@theubersausage.com,(303) 433-4575,Henry DeMatteis,1535 Central Street,,Denver,CO,80211,Mornings before 11am
https://postmates.com/springboard/v1/places/b5db7324-c23c-449b-8152-4a7420f831a3,The Uber Sausage,alex@theubersausage.com,(303) 862-7894,Alex Gschwend,2730 East Colfax Avenue,,Denver,CO,80206,Monday - Friday before 11am
https://postmates.com/springboard/v1/places/6d8013a3-a8f0-4dd6-a080-cfd6b579a896,Seattle Chicken Over Rice,seattlechickenoverrice@gmail.com,(253) 508-8881,Esther Song,401 Pine St,,Seattle,WA,98101,"Monday, Tuesday, or Friday at 1:15 PM sharp"
https://postmates.com/springboard/v1/places/fb39d6fd-58ee-4b23-a6d9-8954d89994c8,Melt Bakery,julian@meltbakery.com,(646) 535-6358,Julian,132 Orchard St,,New York,NY,10002,"June 29, 10am
|June 30, 10am
|July 1, 10am"
https://postmates.com/springboard/v1/places/c865bdb3-283b-443e-8eed-bf505de79e26,Silk Cakes,judy@silkcakes.com,(917) 892-5851,Steve Tom,53 Ludlow Street,,New York,NY,10002,Tues-Fri 12noon to 7pm
https://postmates.com/springboard/v1/places/7efcc32f-6e83-4512-b6e1-16cc86d4a816,The Pikey,erics@committedinc.com,(323) 850-5400,Eric,7617 W Sunset Blvd,,Los Angeles,CA,90046,any day around 4-5pm
https://postmates.com/springboard/v1/places/70a9601b-b76b-4a20-9c3b-f8d5d04e5515,Juice Served Here,j.ejarano@juiceservedhere.com,(323) 944-0409,Joe Ejerano,8366 W 3rd St,,Los Angeles,CA,90048,"6/32, 6/24, 6/27-6/30
|
|11AM. Before 12 noon "
https://postmates.com/springboard/v1/places/9265694d-3ac5-4727-93f0-18316feb7b58,Pizza Rustica,eliasnik@aol.com,(310) 849-5116,Mike,8908 Santa Monica Blvd,,west hollywood,CA,90069,6/24 or 6/27 morning hours
https://postmates.com/springboard/v1/places/44c3485d-2f60-4966-be6b-0723bad4ddf7,Thai Dishes,thaidishesmanchester@gmail.com,(310) 342-0046,Vorravut,6234 W Manchester Ave,,Los Angeles,CA,90045,"6/29 Wednesday 2pm
|
|"
https://postmates.com/springboard/v1/places/2da31ae7-fda1-4604-b511-41d499353e3d,Kiki Japanese restaurant,kikijp@sbcglobal.net,(415) 971-7522,Hiroshi Suzuki,1269 9th avenue,,San Francisco,CA,94122,"3-4pm on 8/15,8/16,8/17"
https://postmates.com/springboard/v1/places/7d573bfc-03b9-483e-9a84-0bfb92011b2f,State Social House,Connie@statesocialhouse.com,(818) 481-7827,Connie Hammock,8782 west sunset blvd,,west Hollywood,CA,90069,"Any Wednesday 4pm-10pm
|Any Thursday 4pm -10pm
|Any Friday 2pm-4pm"
https://postmates.com/springboard/v1/places/5dc0037d-c3ef-456c-8946-6f11ac45b6d9,Jack n Jills too,jacknjillstoo@yahoo.com,(626) 683-8866,Michou,8738 W. 3 rd street,,Los Angeles,CA,90048,2:00-4:00pm
https://postmates.com/springboard/v1/places/9265694d-3ac5-4727-93f0-18316feb7b58,Pizza Rustica,eliasnik@aol.com,(310) 849-5116,Pedram,8908 Santa Monica Bl,,West hollywood,CA,90069,Anytime
https://postmates.com/springboard/v1/places/e3ce82d3-ff73-470b-a92d-2b1860da2232,Mayhem & Stout,jay@mayhemandstout.com,(212) 986-1600,Jay or Larry,711 2nd Ave,,New York,NY,10016,The week of 4th of July
https://postmates.com/springboard/v1/places/574f08a3-34a1-41cb-98d1-340f94f25aa5,Slice Truck Pizza,chris@slicetruck.com,(310) 944-2474,Chris,1523 South Bundy Drive,,Los Angeles,CA,90025,Any day during the week between 11:00am-4:00pm
https://postmates.com/springboard/v1/places/9f9d74a3-b36e-445c-b24c-327cd8597f01,Sugarfina,heysugar@sugarfina.com,(855) 784-2734,Tate Tuckman,Sugarfina The Point,,el segundo,CA,90245,9-10 or 10-11am during the week.
https://postmates.com/springboard/v1/places/f9b5d7f0-09bd-46aa-9fdf-9c9efbbb88b3,Kasa Indian Eatery,catering@kasaindian.com,(415) 944-7655,Anamika or Wendy,1356 Polk Street,,San Francisco,CA,94109,Tue-Thur 10:30am-12pm or 2pm-4pm
https://postmates.com/springboard/v1/places/9d50973a-27eb-408d-a4f3-870c9c4756f3,Chalk Point Kitchen,ML@indieFORK.com,(646) 784-1133,Matthew Levine,527 Broome Street,,New York,NY,10012-0106,Anyday!
https://postmates.com/springboard/v1/places/b878cd92-141f-4316-8ee5-84cfddfd2dc2,carvel ice cream,f4service@hotmail.com,(212) 785-5688,yu peng chang,9 broadway,,new york,NY,10004,11am-6pm
https://postmates.com/springboard/v1/places/6935dc8d-6526-4a3e-89dd-85d2c24e834b,My Ivy,potjaneepnu@hotmail.com,(415) 438-0848,Weednesday or Thursday,1901 Divisadero st,,San francisco,CA,94115,Any Wednesday or Thursday at 2 pm