<?xml version="1.0" encoding="utf-8"?>
<!-- Generator: Adobe Illustrator 16.0.4, SVG Export Plug-In . SVG Version: 6.00 Build 0)  -->
<!DOCTYPE svg PUBLIC "-//W3C//DTD SVG 1.1//EN" "http://www.w3.org/Graphics/SVG/1.1/DTD/svg11.dtd">
<svg version="1.1" xmlns="http://www.w3.org/2000/svg" xmlns:xlink="http://www.w3.org/1999/xlink" x="0px" y="0px" width="498.1px"
	 height="208.6px" viewBox="0 0 498.1 208.6" enable-background="new 0 0 498.1 208.6" xml:space="preserve">
<symbol  id="shotzu_x5F_logo_2_" viewBox="-103.5 -109.5 207 219">
	<path fill-rule="evenodd" clip-rule="evenodd" stroke="#000000" stroke-miterlimit="10" d="M103,0c0-60.2-46.1-109-103-109
		S-103-60.2-103,0c0,60.2,46.1,109,103,109S103,60.2,103,0z"/>
	<g>
		<path fill-rule="evenodd" clip-rule="evenodd" fill="#E14233" d="M46,6.6C29.6,43.6,3.8,71.8-28.7,95c6.1,1.3,11.5,2.8,17,3.4
			c25.3,2.9,48.2-3.6,68.6-19.8c1.5-1.2,2.2-2.4,2.1-4.5C58.2,51.2,53.9,29,46.4,7.5C46.3,7.1,46.1,6.8,46,6.6z"/>
		<path fill-rule="evenodd" clip-rule="evenodd" fill="#A83225" d="M27.2-95.2c-5.5-1.1-10.9-2.6-16.5-3.3
			c-25.2-2.9-48,3.6-68.4,19.7c-1.6,1.2-2.1,2.5-2.1,4.5c0.6,23.3,5.4,45.7,12.9,67.9C-30.3-43.6-4.5-71.7,27.2-95.2z"/>
		<path fill-rule="evenodd" clip-rule="evenodd" fill="#E14233" d="M-18.3-45.4c19.3-2.6,38-0.5,56.5,3.7
			C56.6-37.5,74.3-31,91.4-21.6c-2.1-10-5.4-19-10-27.5c-10.8-19.7-26.2-34-46.2-42.8c-1.5-0.6-2.6-0.7-4,0.2
			C12.5-79.3-3.6-64.1-17.7-46.3C-17.9-46.1-18-45.9-18.3-45.4z"/>
		<path fill-rule="evenodd" clip-rule="evenodd" fill="#A83225" d="M63.3,73c7.9-7.7,14-16,18.8-25.3c9.7-18.8,13.1-39,10.8-60.2
			c-0.2-1.6-0.1-3.3-2-4.3C71.5-27.8,50.8-35,29.1-38.9c-0.3,0-0.5,0-1.1-0.1C39.6-22.8,47.2-4.8,53,14.1C58.9,33,62.4,52.4,63.3,73
			z"/>
		<path fill-rule="evenodd" clip-rule="evenodd" fill="#E14233" d="M-28.5,39.2C-40.3,22.8-47.9,4.8-53.7-14.1
			C-59.5-33-63.1-52.3-64-72.7c-1,0.9-1.8,1.5-2.4,2.2C-82.6-53.3-92.2-32.7-93.9-8.4c-0.5,7.2,0.3,14.5,0.4,21.8
			c0,2.2,1.2,3.1,2.8,4c17.2,9.5,35.3,16.1,54.2,20.2C-34,38.2-31.6,38.6-28.5,39.2z"/>
		<path fill-rule="evenodd" clip-rule="evenodd" fill="#A83225" d="M17.4,45.6c-38.7,3.6-74.7-6-109.8-23.9
			c1.5,4.9,2.5,9.4,4.1,13.6c10,26.5,27.4,45.4,52.4,56.5c1.1,0.5,2.8,0.5,3.7-0.1c18.8-12.1,34.9-27.4,49-45.2
			C17.1,46.2,17.3,45.9,17.4,45.6z"/>
	</g>
	<path fill-rule="evenodd" clip-rule="evenodd" fill="#FFFFFF" stroke="#000000" stroke-miterlimit="10" d="M20.4,0
		c0-11.6-9.4-21-21-21s-21,9.4-21,21s9.4,21,21,21S20.4,11.6,20.4,0z"/>
</symbol>
<pattern  x="699.2" y="-4401.2" width="139.5" height="141.3" patternUnits="userSpaceOnUse" id="New_Pattern_2" viewBox="0 -282.7 139.5 141.3" overflow="visible">
	<g>
		<polygon fill="none" points="0,-282.7 139.5,-282.7 139.5,-141.3 0,-141.3 		"/>
		
			<image overflow="visible" width="1000" height="1000" xlink:href="../../../../../Downloads/textured_paper/textured_paper_@2X.png"  transform="matrix(0.1395 0 0 0.1413 0 -141.3315)">
		</image>
		
			<image overflow="visible" width="1000" height="1000" xlink:href="../../../../../Downloads/textured_paper/textured_paper_@2X.png"  transform="matrix(0.1395 0 0 0.1413 0 -282.6626)">
		</image>
	</g>
</pattern>
<g id="Layer_1">
</g>
<g id="Layer_7">
	<g id="shotzu">
	</g>
</g>
<g id="Layer_12">
</g>
<g id="Layer_2">
</g>
<g id="Layer_3">
</g>
<g id="Layer_4">
</g>
<g id="Layer_4_copy">
</g>
<g id="Layer_4_copy_2">
</g>
<g id="Layer_9">
	<g id="shotzu_x5F_logo_1_">
	</g>
	<g id="shotzu_x5F_logo" display="none">
	</g>
</g>
<g id="Layer_13">
</g>
<g id="Layer_14">
</g>
<g id="Layer_15">
</g>
<g id="Isolation_Mode">
</g>
<g id="Photographer">
</g>
<g id="Layer_18">
</g>
<g id="Layer_19">
</g>
<g id="Layer_20">
</g>
<g id="Layer_21">
</g>
<g id="Layer_23">
</g>
<g id="Layer_24">
	<g>
		<path fill-rule="evenodd" clip-rule="evenodd" d="M248.9,208.6c-74.5,0-149,0-223.5,0c-3.8,0-7.8,0-11.5-1
			c-7.8-2.1-12.3-7.7-13.5-15.7c-0.5-3.2-0.5-6.5-0.5-9.8c0-28.9,0-57.8,0.1-86.8c0-8.5,2.9-15.7,11.1-19.4
			c3.4-1.5,7.4-2.2,11.2-2.2c27.8-0.1,55.7,0.1,83.5,0.1c6.5,0,13.1-0.3,19.6-0.2c2.9,0,4-0.9,4.2-3.9c0.7-8.6,1.8-17.1,2.5-25.7
			c0.2-2.5,1.2-3.6,3.6-4.2c17.8-4,35.5-8.1,53.3-12.2c14-3.2,28-6.5,41.9-9.8c7.6-1.8,15.2-3.8,22.9-5.2c2.4-0.4,5.1,0.4,7.5,1
			c14.4,3.5,28.9,7,43.3,10.6c2.7,0.7,3.3-0.3,3.3-2.7c0-6.1,0.2-12.3,0-18.4c0-2.2,0.6-3.1,2.8-3.1c7.6,0,15.3,0,22.9-0.1
			c1.7,0,2.4,0.6,2.4,2.5c-0.1,8.5,0,17-0.3,25.5c-0.1,3.3,1.2,4.6,4.1,5.2c9.5,2.1,18.9,4.5,28.3,6.6c2.7,0.6,3.8,1.8,4,4.5
			c0.8,8.9,1.9,17.7,2.7,26.6c0.2,2.2,1.3,2.6,3.1,2.6c30.6,0.1,61.2,0.2,91.8,0.3c2.7,0,5.3,0,8,0c12.3,0.1,20.2,8.1,20.3,20.4
			c0,14.4-0.1,28.7-0.1,43.1c0,17,0,34.1,0,51.1c0,8-3.2,14.3-10.6,17.8c-2.9,1.3-6.3,2.1-9.4,2.1c-42.2,0.2-84.4,0.1-126.6,0.2
			c-34.2,0-68.3,0-102.5,0C248.9,208.5,248.9,208.6,248.9,208.6z M441.7,162.9c0.3,0,0.7-0.1,1-0.1c0.3,0.4,0.6,0.7,0.9,1.1
			c5.5,9.2,10.9,18.4,16.5,27.5c0.8,1.2,2.5,2.5,3.8,2.6c6.8,0.3,13.7,0.1,20.5,0.1c1.9,0,2.7-0.8,2.7-2.7
			c-0.1-4.2,0.1-8.3-0.2-12.5c-0.1-0.9-1.2-2.2-2.1-2.4c-1.5-0.4-2.2-1-2.2-2.6c0-12,0-24,0.1-35.9c0-0.8,1.2-2.1,1.9-2.2
			c2-0.2,2.5-1.2,2.4-2.9c-0.1-3.8-0.2-7.5,0-11.3c0.1-2.5-0.9-3.3-3.3-3.2c-8.1,0.1-16.2,0-24.4-0.1c-2.1,0-2.8,0.7-2.8,2.7
			c0.1,4.1,0,8.1,0,12.2c0,1.7,0.5,2.6,2.4,2.7c0.7,0,1.9,0.8,2,1.2c0.2,4.1,0.1,8.2,0.1,12.3c-0.3,0.1-0.5,0.1-0.8,0.2
			c-0.5-0.5-1.1-1-1.4-1.6c-5.4-9-10.9-17.9-16.2-26.9c-1.1-1.8-2.3-2.7-4.5-2.7c-6.5,0.1-13.1,0-19.6-0.1c-2,0-2.9,0.7-2.9,2.8
			c0.1,4,0.1,7.9,0,11.9c0,1.8,0.4,2.9,2.4,2.9c2-0.1,2.4,0.9,2.4,2.8c-0.1,11.7-0.1,23.4,0,35.1c0,1.9-0.6,2.5-2.5,2.8
			c-0.9,0.1-2.2,1.4-2.2,2.3c-0.2,4.3-0.2,8.7,0,13.1c0,0.8,1.3,2.1,2.1,2.1c8.7,0.2,17.4,0.1,26.1,0.1c1.7,0,2.5-0.9,2.5-2.6
			c0-4.2,0-8.3,0-12.5c0-1.7-0.8-2.5-2.5-2.6c-0.8-0.1-2.1-0.7-2.1-1.1C441.6,171.1,441.7,167,441.7,162.9z M12.2,158.8
			c0,4.1,0,8.1,0,12.2c0,4.1-0.2,8.1,0.1,12.2c0.1,1.8,1,3.8,2.1,5.2c2.8,3.2,5.8,6.2,9,9c1.3,1.1,3.2,2,4.9,2
			c8.1,0.2,16.3-0.2,24.4,0.2c5.9,0.3,10-1.5,14.4-5.6c5.5-5.1,8.8-10.3,7.4-18c-0.3-1.4-0.1-3,0-4.4c0.2-2.5-0.9-3.3-3.3-3.2
			c-4.1,0.1-8.1,0.1-12.2,0.1c-7.3,0-7.3,0-7.3,7.4c0,0.1,0,0.2,0,0.3c0,2.6-1.5,4.4-4.1,4.4c-2.9,0.1-5.7,0.1-8.6-0.1
			c-2.4-0.1-3.8-1.4-3.8-4c0-11.8,0-23.6,0-35.4c0-2.7,1.5-4,4.1-4.1c2.7-0.1,5.3-0.1,8,0c2.8,0.1,4.3,1.7,4.4,4.5
			c0,1.9,0,3.8-0.1,5.6c-0.1,2,0.7,2.9,2.7,2.9c5.7-0.1,11.5-0.1,17.2,0c2.2,0,3-0.9,3-3c-0.1-4.6,0.1-9.1-0.1-13.7
			c0-1.1-0.6-2.3-1.4-3.1c-3.3-3.5-6.8-7-10.3-10.3c-0.9-0.8-2.2-1.5-3.3-1.5c-10.7-0.1-21.4-0.1-32.1,0.1c-1.1,0-2.5,0.6-3.4,1.4
			c-3.5,3.3-7,6.8-10.3,10.3c-0.8,0.9-1.5,2.4-1.5,3.6C12.1,142.2,12.2,150.5,12.2,158.8z M240.3,142.1c-1.2-1.5-1.9-2.2-2.4-3.1
			c-3.6-6-7.2-12.1-10.9-18.1c-0.7-1-2-2.3-3-2.4c-5.7-0.2-11.5-0.2-17.2,0c-0.7,0-1.9,1.2-2,1.9c-0.2,3.6-0.2,7.1-0.1,10.7
			c0,0.7,1,1.8,1.6,1.9c1.7,0.3,1.9,1.2,1.9,2.7c0,9.8,0.1,19.6,0.1,29.4c0,0.7-0.9,1.8-1.6,1.9c-1.8,0.3-2.2,1.3-2.2,2.9
			c0,3.2,0.1,6.3,0,9.5c-0.1,2,0.8,2.9,2.8,2.8c6.7-0.1,13.5-0.1,20.2,0c2.2,0,3-0.9,3-3c-0.1-3.1,0.2-6.2-0.1-9.2
			c-0.1-1-1.4-2-2.1-3c-0.6-0.8-1.5-1.6-1.7-2.6c-0.3-1.6-0.1-3.4-0.1-5c0-1.5,0-3.1,0-4.6c0.4-0.1,0.8-0.1,1.1-0.2
			c0.6,1,1.3,1.9,1.9,2.9c2.9,4.7,5.8,9.5,8.7,14.2c1.4,2.2,2.1,2.2,3.4,0c2.8-4.6,5.5-9.1,8.3-13.7c0.7-1.1,1.5-2.1,2.3-3.2
			c0.4,0.1,0.7,0.1,1.1,0.2c0,3.6,0,7.2-0.1,10.8c0,0.4-0.7,1.1-1.1,1.1c-2.7,0.2-2.7,2-2.7,4c0,2.9,0,5.7,0,8.6
			c0,1.8,0.8,2.7,2.7,2.7c6.8,0,13.7,0,20.5,0c1.8,0,2.8-0.6,2.8-2.6c0-3.4,0.1-6.7-0.1-10.1c0-0.8-0.7-2.1-1.1-2.2
			c-3.4-0.1-2.8-2.4-2.8-4.6c0.1-9,0-18,0.1-27c0-0.9,0.6-2.4,0.9-2.4c3.5,0,2.9-2.5,2.9-4.6c0-2.4-0.1-4.8,0-7.1
			c0.2-2.6-1-3.3-3.3-3.2c-3.5,0.1-7,0.5-10.4-0.1c-6.1-1-9.1,2-11.6,7C247.5,130.9,243.9,136.1,240.3,142.1z M121.8,118.4
			c-3.6,0-7.1,0-10.7,0c-1.8,0-2.8,0.6-2.7,2.6c0.1,3.3-0.2,6.5,0,9.8c0,0.8,1.3,1.5,1.9,2.3c0.7,0.8,1.8,1.5,1.9,2.3
			c0.5,6,0.5,6-5.4,6c-1.3,0-2.6,0-3.9,0c-1.7,0-2.6-0.6-2.4-2.5c0.1-1,0.1-2,0-3c-0.2-1.6,0.2-2.6,2.1-2.9c0.7-0.1,1.7-1.4,1.7-2.1
			c0.2-3.4,0.2-6.7-0.1-10.1c-0.1-0.8-1.4-2.3-2.2-2.3c-7-0.2-14.1,0-21.1,0c-1.8,0-2.5,0.7-2.4,2.5c0.1,3.3-0.2,6.5,0,9.8
			c0,0.8,1.2,1.5,1.9,2.3c0.6,0.8,1.8,1.5,1.8,2.3c0.1,9.9,0.1,19.8,0,29.7c0,0.6-0.6,1.8-0.9,1.9c-3.4,0.1-2.9,2.6-2.9,4.7
			c0,2.7,0,5.3-0.1,8c-0.1,1.7,0.4,2.7,2.3,2.7c7,0,14.1,0,21.1,0c1.7,0,2.6-0.8,2.6-2.5c0-3.4,0.1-6.7-0.1-10.1
			c0-0.8-0.9-2.2-1.6-2.3c-2-0.4-2.2-1.4-2.2-3.1c0-8.2-0.6-6.5,6.5-6.7c5.3-0.1,5.3,0,5.3,5.3c0,2.1,0.3,4.3-2.8,4.6
			c-0.4,0-1.1,1.4-1.1,2.1c-0.1,3.4,0,6.7-0.1,10.1c0,1.7,0.7,2.6,2.5,2.6c7,0,14.1,0,21.1,0c1.6,0,2.4-0.7,2.3-2.3
			c0-3.5,0.1-6.9-0.1-10.4c0-0.8-1.2-1.6-1.9-2.4c-0.7-0.9-1.9-1.8-1.9-2.7c-0.1-9.5-0.1-19-0.1-28.5c0-1.7,0.2-2.8,2.3-3
			c0.6,0,1.5-1.3,1.6-2c0.2-3.4,0-6.7,0.1-10.1c0-1.9-0.8-2.6-2.7-2.5C128.3,118.5,125.1,118.4,121.8,118.4z M154.2,133.9
			c0.3,0,0.6,0.1,0.9,0.1c-4.1,10.3-8.1,20.6-12.3,30.8c-0.4,1-1.9,1.5-2.7,2.3c-0.8,0.8-2.1,1.6-2.1,2.5c-0.3,3.3-0.3,6.7,0,10.1
			c0.1,0.9,1.4,2.3,2.2,2.3c6.8,0.2,13.7,0.1,20.5,0c0.7,0,2.1-1,2.1-1.5c0-4.9,1.4-10-1.6-15.4c6-0.3,11.6-0.3,17.4,0
			c-0.7,2-1.5,3.2-1.6,4.4c-0.2,3.4-0.1,6.7-0.1,10.1c0,1.8,0.7,2.5,2.5,2.4c6.7,0,13.5,0,20.2,0c1.7,0,2.6-0.7,2.6-2.5
			c0-3.5,0.1-6.9-0.1-10.4c0-0.8-1-2.1-1.7-2.1c-2.1-0.2-2.9-1.4-3.5-3.1c-0.5-1.4-1.1-2.7-1.7-4.1c-3.5-8.7-7-17.4-10.7-26.6
			c3.5-0.1,3-2.4,3-4.5c0-2.6-0.1-5.2,0-7.7c0.1-2-0.6-2.9-2.7-2.9c-9.8,0.1-19.6,0.1-29.4,0c-2,0-2.6,0.9-2.5,2.7
			c0.1,2.8-0.2,5.6,0,8.3C153,130.9,153.8,132.4,154.2,133.9z M411.8,150.3C411.8,150.3,411.8,150.3,411.8,150.3
			c0-4.2-0.3-8.3,0.1-12.5c0.7-6.4-0.7-11.7-6.3-15.4c-0.6-0.4-1-1.3-1.7-1.7c-1.8-0.9-3.6-2.2-5.4-2.3c-4.9-0.3-9.9,0.3-14.8-0.2
			c-7.5-0.8-13.5,1-17.9,7.4c-0.3,0.4-0.8,0.6-1,1.1c-0.7,1.5-1.9,3-1.9,4.6c-0.2,9.6,0.6,19.2-0.2,28.8c-0.8,8.6,1.6,15.1,8.6,20.1
			c0.2,0.1,0.3,0.3,0.4,0.4c1.4,0.6,2.8,1.6,4.2,1.6c7.6,0.2,15.2,0.1,22.8,0c1.3,0,2.8-0.5,3.8-1.3c2.9-2.5,5.6-5.3,8.3-8.1
			c0.7-0.8,1-2.1,1-3.2C411.9,163.2,411.8,156.7,411.8,150.3z M299.4,118.4c-5.8,0-11.7,0-17.5,0c-2,0-2.9,0.8-2.8,2.8
			c0.1,3.1-0.1,6.1,0.1,9.2c0.1,0.9,1.3,1.8,1.9,2.6c0.6,0.8,1.7,1.6,1.7,2.4c0.1,9.7,0.1,19.4,0,29.1c0,0.8-1.1,1.7-1.7,2.5
			c-0.7,0.9-1.9,1.7-2,2.7c-0.2,3.2-0.1,6.5-0.1,9.8c0,1.7,0.7,2.6,2.5,2.6c7,0,14.1,0.1,21.1,0.1c1.7,0,2.5-0.8,2.5-2.6
			c-0.1-3.3-0.1-6.5-0.1-9.8c0-1.6-0.4-2.6-2.3-2.8c-0.6-0.1-1.6-1.1-1.6-1.6c0.1-2.3,0.5-4.7,0.9-7c0-0.1,0.9-0.2,1.4-0.2
			c1.1,0,2.2-0.2,3.3,0c8.8,1.5,15.8-1.3,21-8.6c0.1-0.2,0.3-0.3,0.4-0.4c0.5-1.1,1.3-2.3,1.3-3.4c0.2-4.8,0.1-9.7,0.1-14.5
			c0-3.1-9.1-12.7-12.3-12.9c-0.4,0-0.8,0-1.2,0C310.5,118.4,304.9,118.4,299.4,118.4z M346.2,118.4
			C346.2,118.4,346.2,118.4,346.2,118.4c-3.4,0-6.7,0-10.1-0.1c-1.8,0-2.8,0.6-2.7,2.6c0.1,3.3-0.1,6.5,0.1,9.8
			c0.1,0.8,1.1,2.1,1.8,2.3c1.8,0.4,1.9,1.4,1.9,2.8c0,9.7,0.1,19.4,0,29.1c0,0.7-1.1,1.5-1.7,2.2c-0.7,0.9-2,1.7-2,2.6
			c-0.3,3.3-0.1,6.7-0.1,10.1c0,1.8,0.9,2.5,2.5,2.5c7,0,14.1,0,21.1,0c1.6,0,2.3-0.7,2.3-2.4c0-3.5,0.1-6.9-0.1-10.4
			c0-0.8-0.8-2.1-1.4-2.2c-2.1-0.4-2.4-1.6-2.4-3.4c0-9.5,0-19,0.1-28.5c0-0.8,1.1-2.1,1.8-2.2c1.6-0.4,2.1-1.1,2-2.6
			c-0.1-3.1-0.2-6.1-0.1-9.2c0.1-2.2-0.9-3-3-2.9C352.9,118.5,349.5,118.4,346.2,118.4z M104.2,100.2c2.1-0.2,3.5,0,4.4-0.5
			c1.1-0.6,2.5-1.9,2.6-3c0.3-3.2,0.2-6.5,0.1-9.8c-0.1-2.1-1.4-3.2-3.5-3.2c-8.9,0-17.8,0-26.7,0c-1.7,0-2.5,0.7-2.5,2.5
			c0,7.1,0,14.3,0,21.4c0,0.8,0.4,1.9,1,2.2c3.2,1.9,6.6-0.1,6.7-3.8c0-0.4,0-0.8,0-1.2c0-4.6,2-6.1,6.4-4.7
			c0.8,0.3,1.5,0.9,2.2,1.5c2.3,2,4.5,4.1,6.8,6.2c2.7,2.5,8.2,3.3,12.1,1.4C110.6,106.2,107.7,103.5,104.2,100.2z M163.7,93.6
			c1.4,0.9,2.2,1.3,2.8,1.8c5.5,4.4,11,8.7,16.4,13.1c2.6,2.1,5.4,1.5,8.2,1.3c0.4,0,1.1-1.1,1.1-1.7c0.1-7.4,0.1-14.8,0-22.2
			c0-0.7-0.5-1.6-1-1.9c-3.4-1.8-6.6,0.2-6.6,4c0,3.7,0,7.4,0,11.8c-1.4-0.9-2-1.3-2.6-1.7c-5.7-4.4-11.3-9.1-17.3-13
			c-1.9-1.3-5-0.9-7.6-0.7c-0.4,0-0.9,3.1-0.9,4.8c-0.1,5.9,0,11.9-0.1,17.8c0,2.4,0.6,3.5,3.2,3.3c2.2-0.1,4.4,0.3,4.3-3.2
			C163.6,102.8,163.7,98.6,163.7,93.6z M358,110c4,0,7.9-0.1,11.9,0c2.5,0.1,3.3-0.9,3.3-3.3c0-2.4-1-3.1-3.2-3
			c-5.4,0.1-10.9,0-16.3,0c-1.4,0-2.6-0.2-2.5-2.1c0.1-1.8,1.2-2,2.6-2c2.6,0.1,5.1,0,7.7,0.1c2.3,0,2.4-1.4,2.4-3.2
			c0-1.7-0.1-3.2-2.4-3.2c-2.6,0-5.2,0.1-7.7-0.1c-0.9-0.1-2.4-0.9-2.5-1.6c-0.3-1.8,1.1-1.9,2.5-1.9c5.4,0,10.9-0.1,16.3,0
			c2.4,0,3.1-1,3.1-3.2c0-2.3-1.1-2.9-3.1-2.8c-7.9,0.1-15.8,0.1-23.8,0c-2.2,0-3.2,0.6-3.2,3c0.1,6.8,0.1,13.7,0,20.5
			c0,2.3,0.9,2.9,3,2.9C350.1,110,354.1,110,358,110z M135.4,110c4,0,7.9-0.1,11.9,0c2.1,0,3.3-0.3,3.3-2.9c0-2.5-0.8-3.5-3.5-3.4
			c-5.3,0.2-10.7,0.1-16-0.1c-0.9,0-1.7-1.3-2.6-2c0.9-0.6,1.8-1.7,2.7-1.8c2.5-0.3,5.1-0.1,7.7-0.1c2.5,0,2.5-1.6,2.6-3.4
			c0-1.9-0.4-3.1-2.6-3.1c-2.4,0-4.7,0-7.1,0c-1.4,0-3.4,0.3-3.2-1.9c0.1-0.7,2-1.6,3.1-1.6c5.3-0.2,10.7-0.2,16-0.1
			c2.2,0,2.8-1,2.9-3.1c0-2.2-0.8-3-2.9-3c-8,0.1-16,0.1-24,0c-2.1,0-3.1,0.7-3,2.9c0.1,6.8,0.1,13.7,0,20.5c0,2.4,1,3.1,3.2,3
			C127.7,109.9,131.6,110,135.4,110z M311,92c0-2.4-0.1-3.9,0-5.3c0.3-3.6-2.3-2.9-4.4-3.1c-2.3-0.1-3.5,0.5-3.5,3.1
			c0.1,6.5,0.2,13.1,0,19.6c-0.1,3.1,1.2,3.8,4,3.8c3,0,4.2-1,3.8-3.9c-0.2-1.2-0.2-2.4,0.1-3.5c0.3-1.2,0.9-2.8,1.9-3.2
			c0.9-0.4,2.7,0.1,3.5,0.8c3.2,2.6,6.2,5.5,9.3,8.3c2.1,1.9,8.4,2.1,10.8,0.4c-5.1-4.8-10.2-9.5-15.6-14.6
			c5.1-3.3,9.9-6.5,15.1-9.9C325.8,81,319.1,87.6,311,92z M432.7,109.5c-0.1-0.6,0-1-0.2-1.3c-4.7-7.8-9.4-15.6-14.2-23.2
			c-1.4-2.2-7-2-8.3,0.2c-4.7,7.5-9.4,15.1-14,22.7c-0.3,0.4,0,1.6,0.4,1.9c2.2,1.4,7.3-0.3,8.9-2.4c1-1.3,2.6-2.7,4-2.8
			c3.4-0.4,6.9-0.2,10.4,0c1,0.1,2.3,0.8,2.9,1.6C425.4,110.3,426.9,110.9,432.7,109.5z M350,45.1c0.1-0.2,0.1-0.4,0.2-0.6
			c-0.4-0.1-0.7-0.3-1.1-0.4c-27.3-6.5-54.7-13.1-82-19.6c-6.5-1.6-12.8-2.5-19.7-0.7c-24.8,6.2-49.7,11.6-74.6,17.4
			c-5.3,1.2-10.6,2.6-15.9,4c0.1,0.2,0.1,0.5,0.2,0.7c8.6-1.8,17.2-3.5,25.8-5.3c22.1-4.5,44.2-9.1,66.3-13.7
			c4.4-0.9,8.6-1.1,13.1,0c20.5,4.5,41,8.7,61.6,13C332.6,41.7,341.3,43.4,350,45.1z M82.1,193.9c0,0.3,0,0.6,0,0.8
			c107.6,0,215.3,0,322.9,0c0-0.3,0-0.6,0-0.8C297.4,193.9,189.7,193.9,82.1,193.9z M216.9,83.6C216.9,83.6,216.9,83.7,216.9,83.6
			c-4.9,0-9.9,0.1-14.8,0c-2,0-2.5,1-2.5,2.8c0,1.8,0.2,3.2,2.5,3.2c2.5,0,4.9,0,7.4,0c2,0,2.8,0.6,2.7,2.8
			c-0.2,4.6,0.1,9.3-0.1,13.9c-0.1,2.9,1,4,3.7,3.7c0.7-0.1,1.4,0,2.1,0c2.3,0.2,3.2-0.8,3.1-3.1c-0.1-4.9,0.1-9.9-0.1-14.8
			c-0.1-1.9,0.6-2.5,2.4-2.5c2.4,0,4.8-0.1,7.1,0c2.3,0.1,3.4-0.5,3.5-3.1c0-2.6-1.3-2.9-3.3-2.9C226,83.7,221.5,83.6,216.9,83.6z
			 M268.4,110C268.4,110,268.4,110,268.4,110c3.9,0,7.7,0,11.6,0c1.9,0,3.5-0.1,3.4-2.8c-0.1-2.4-0.6-3.6-3.4-3.6
			c-5.2,0.2-10.5,0-15.7,0.1c-2.2,0-3-0.8-2.9-3c0.2-4.7,0-9.5,0.1-14.2c0.1-3.1-1.9-3-3.9-2.9c-2,0.1-4.3-0.6-4.2,2.9
			c0.1,6.8,0.1,13.6,0,20.5c0,2.4,0.9,3.1,3.2,3.1C260.5,109.9,264.5,110,268.4,110z M287.2,96.8C287.2,96.8,287.1,96.8,287.2,96.8
			c-0.1,3.1-0.1,6.1-0.1,9.2c0,3.8,0.2,4,4,4c0.6,0,1.2,0,1.8,0c2.4,0.2,3.3-0.8,3.3-3.3c-0.1-5.9,0-11.8,0-17.8
			c0-5.4,0-5.4-5.3-5.3c-0.3,0-0.6,0-0.9,0c-2-0.1-2.8,0.8-2.8,2.8C287.3,89.9,287.2,93.4,287.2,96.8z M270.8,67.2
			c-0.2-7.4-0.2-7.4-7.2-7.4c-7.7,0-6.7-0.8-6.8,6.8c0,7.5,0,7.5,7.5,7.5C272.4,74,270.8,74.8,270.8,67.2z M237.6,66.2
			c0,1.7,0.1,3.4,0,5c-0.1,1.7,0.6,2.4,2.2,2.3c2.5,0,4.9,0,7.4,0c5.3,0,4.6,0.1,4.5-4.4c0-1,0-2,0-3c0-8.2,0.8-6.8-6.9-6.9
			C237.9,59.3,237.9,59.4,237.6,66.2z M237.7,47.8c0,7.3,0,7.4,6.9,7.3c8.1,0,7,1.3,7.1-7c0-7.1,0-7.1-7-7.2
			C237.6,40.9,237.6,40.9,237.7,47.8z M257.4,47.9c0,7.3,0,7.3,6.5,7.2c7.3,0,7.4,0,7.3-7.4c0-8,1.1-6.8-6.9-6.9
			C257.3,40.9,257.3,40.9,257.4,47.9z"/>
		<path fill-rule="evenodd" clip-rule="evenodd" fill="#FFFFFF" d="M441.7,162.9c0,4.1-0.1,8.2,0.1,12.2c0,0.4,1.3,1.1,2.1,1.1
			c1.7,0.2,2.5,0.9,2.5,2.6c0,4.2,0,8.3,0,12.5c0,1.7-0.8,2.6-2.5,2.6c-8.7,0-17.4,0-26.1-0.1c-0.7,0-2.1-1.4-2.1-2.1
			c-0.2-4.3-0.2-8.7,0-13.1c0-0.8,1.4-2.2,2.2-2.3c1.9-0.3,2.5-0.9,2.5-2.8c-0.1-11.7-0.1-23.4,0-35.1c0-1.8-0.4-2.9-2.4-2.8
			c-2,0.1-2.5-1.1-2.4-2.9c0.1-4,0.1-7.9,0-11.9c0-2.1,0.9-2.8,2.9-2.8c6.5,0.1,13.1,0.1,19.6,0.1c2.1,0,3.4,0.8,4.5,2.7
			c5.3,9,10.8,18,16.2,26.9c0.4,0.6,1,1.1,1.4,1.6c0.3-0.1,0.5-0.1,0.8-0.2c0-4.1,0.1-8.2-0.1-12.3c0-0.5-1.3-1.2-2-1.2
			c-1.8-0.1-2.4-1-2.4-2.7c0-4.1,0.1-8.1,0-12.2c0-2,0.7-2.8,2.8-2.7c8.1,0.1,16.2,0.2,24.4,0.1c2.4,0,3.4,0.7,3.3,3.2
			c-0.2,3.8-0.1,7.5,0,11.3c0,1.7-0.4,2.7-2.4,2.9c-0.7,0.1-1.9,1.4-1.9,2.2c-0.1,12-0.1,24-0.1,35.9c0,1.6,0.6,2.2,2.2,2.6
			c0.9,0.2,2,1.5,2.1,2.4c0.2,4.1,0.1,8.3,0.2,12.5c0,1.9-0.8,2.7-2.7,2.7c-6.8,0-13.7,0.1-20.5-0.1c-1.3-0.1-3.1-1.4-3.8-2.6
			c-5.6-9.1-11-18.3-16.5-27.5c-0.2-0.4-0.6-0.7-0.9-1.1C442.3,162.8,442,162.9,441.7,162.9z"/>
		<path fill-rule="evenodd" clip-rule="evenodd" fill="#FFFFFF" d="M12.2,158.8c0-8.3-0.1-16.6,0.1-25c0-1.2,0.6-2.7,1.5-3.6
			c3.3-3.6,6.7-7,10.3-10.3c0.8-0.8,2.2-1.4,3.4-1.4c10.7-0.1,21.4-0.2,32.1-0.1c1.1,0,2.5,0.7,3.3,1.5c3.5,3.3,7,6.8,10.3,10.3
			c0.7,0.8,1.3,2,1.4,3.1c0.1,4.6,0,9.1,0.1,13.7c0,2.1-0.8,3.1-3,3c-5.7-0.1-11.5,0-17.2,0c-2.1,0-2.9-0.8-2.7-2.9
			c0.1-1.9,0.2-3.8,0.1-5.6c-0.1-2.9-1.6-4.4-4.4-4.5c-2.7-0.1-5.4-0.1-8,0c-2.5,0.1-4.1,1.4-4.1,4.1c0,11.8,0,23.6,0,35.4
			c0,2.6,1.4,3.9,3.8,4c2.9,0.2,5.7,0.2,8.6,0.1c2.6-0.1,4.1-1.8,4.1-4.4c0-0.1,0-0.2,0-0.3c0-7.4,0-7.4,7.3-7.4
			c4.1,0,8.1,0.1,12.2-0.1c2.4-0.1,3.5,0.7,3.3,3.2c-0.1,1.5-0.3,3,0,4.4c1.4,7.6-2,12.9-7.4,18c-4.3,4.1-8.5,5.9-14.4,5.6
			c-8.1-0.5-16.2,0-24.4-0.2c-1.7,0-3.6-0.9-4.9-2c-3.2-2.8-6.3-5.8-9-9c-1.2-1.4-2-3.4-2.1-5.2c-0.3-4-0.1-8.1-0.1-12.2
			C12.2,166.9,12.2,162.9,12.2,158.8z"/>
		<path fill-rule="evenodd" clip-rule="evenodd" fill="#FFFFFF" d="M240.3,142.1c3.6-6,7.2-11.2,10.1-16.8c2.5-5,5.5-8,11.6-7
			c3.4,0.6,6.9,0.2,10.4,0.1c2.3-0.1,3.5,0.7,3.3,3.2c-0.2,2.4,0,4.8,0,7.1c0,2.1,0.6,4.6-2.9,4.6c-0.3,0-0.9,1.6-0.9,2.4
			c-0.1,9,0,18-0.1,27c0,2.2-0.7,4.5,2.8,4.6c0.4,0,1,1.4,1.1,2.2c0.1,3.4,0,6.7,0.1,10.1c0,2-1,2.6-2.8,2.6c-6.8,0-13.7-0.1-20.5,0
			c-1.9,0-2.7-0.8-2.7-2.7c0-2.9,0-5.7,0-8.6c0-2,0-3.8,2.7-4c0.4,0,1.1-0.7,1.1-1.1c0.1-3.6,0.1-7.2,0.1-10.8
			c-0.4-0.1-0.7-0.1-1.1-0.2c-0.8,1.1-1.6,2.1-2.3,3.2c-2.8,4.5-5.6,9.1-8.3,13.7c-1.4,2.3-2.1,2.3-3.4,0c-2.9-4.7-5.8-9.4-8.7-14.2
			c-0.6-1-1.3-1.9-1.9-2.9c-0.4,0.1-0.8,0.1-1.1,0.2c0,1.5,0,3.1,0,4.6c0,1.7-0.2,3.4,0.1,5c0.2,0.9,1.1,1.7,1.7,2.6
			c0.7,1,2,1.9,2.1,3c0.3,3,0,6.1,0.1,9.2c0,2.1-0.8,3.1-3,3c-6.7-0.1-13.5-0.1-20.2,0c-2,0-2.8-0.8-2.8-2.8c0.1-3.2,0.1-6.3,0-9.5
			c0-1.6,0.3-2.6,2.2-2.9c0.6-0.1,1.5-1.2,1.6-1.9c0-9.8-0.1-19.6-0.1-29.4c0-1.5-0.3-2.4-1.9-2.7c-0.7-0.1-1.6-1.2-1.6-1.9
			c-0.2-3.6-0.2-7.1,0.1-10.7c0-0.7,1.3-1.8,2-1.9c5.7-0.2,11.5-0.2,17.2,0c1.1,0,2.4,1.3,3,2.4c3.7,6,7.2,12,10.9,18.1
			C238.4,139.8,239.1,140.6,240.3,142.1z"/>
		<path fill-rule="evenodd" clip-rule="evenodd" fill="#FFFFFF" d="M121.8,118.4c3.3,0,6.5,0.1,9.8,0c1.9-0.1,2.8,0.6,2.7,2.5
			c-0.1,3.4,0.1,6.7-0.1,10.1c0,0.7-1,1.9-1.6,2c-2.1,0.2-2.3,1.3-2.3,3c0,9.5,0,19,0.1,28.5c0,0.9,1.2,1.8,1.9,2.7
			c0.6,0.8,1.8,1.6,1.9,2.4c0.2,3.5,0,6.9,0.1,10.4c0,1.7-0.8,2.3-2.3,2.3c-7,0-14.1,0-21.1,0c-1.7,0-2.5-0.9-2.5-2.6
			c0-3.4,0-6.7,0.1-10.1c0-0.8,0.7-2.1,1.1-2.1c3.1-0.3,2.8-2.5,2.8-4.6c0-5.4,0-5.4-5.3-5.3c-7.1,0.1-6.5-1.5-6.5,6.7
			c0,1.7,0.2,2.8,2.2,3.1c0.7,0.1,1.6,1.5,1.6,2.3c0.2,3.4,0.1,6.7,0.1,10.1c0,1.7-0.9,2.5-2.6,2.5c-7,0-14.1,0-21.1,0
			c-1.9,0-2.3-1-2.3-2.7c0.1-2.7,0-5.3,0.1-8c0-2.1-0.5-4.6,2.9-4.7c0.3,0,0.9-1.2,0.9-1.9c0.1-9.9,0.1-19.8,0-29.7
			c0-0.8-1.2-1.5-1.8-2.3c-0.7-0.8-1.8-1.5-1.9-2.3c-0.2-3.3,0-6.5,0-9.8c0-1.8,0.7-2.5,2.4-2.5c7,0,14.1-0.1,21.1,0
			c0.8,0,2.2,1.4,2.2,2.3c0.3,3.3,0.2,6.7,0.1,10.1c0,0.8-1,2-1.7,2.1c-1.9,0.3-2.2,1.2-2.1,2.9c0.1,1,0.1,2,0,3
			c-0.2,1.9,0.7,2.5,2.4,2.5c1.3,0,2.6,0,3.9,0c5.9,0,5.9,0,5.4-6c-0.1-0.8-1.2-1.6-1.9-2.3c-0.7-0.8-1.9-1.5-1.9-2.3
			c-0.2-3.3,0-6.5,0-9.8c0-2,0.9-2.6,2.7-2.6C114.7,118.4,118.2,118.4,121.8,118.4z"/>
		<path fill-rule="evenodd" clip-rule="evenodd" fill="#FFFFFF" d="M154.2,133.9c-0.5-1.5-1.2-3-1.3-4.5c-0.2-2.8,0-5.5,0-8.3
			c0-1.8,0.5-2.7,2.5-2.7c9.8,0,19.6,0,29.4,0c2.1,0,2.8,1,2.7,2.9c-0.1,2.6,0,5.1,0,7.7c0,2.1,0.5,4.4-3,4.5
			c3.7,9.2,7.2,17.9,10.7,26.6c0.6,1.4,1.2,2.7,1.7,4.1c0.6,1.7,1.4,2.9,3.5,3.1c0.7,0.1,1.6,1.4,1.7,2.1c0.2,3.5,0.1,6.9,0.1,10.4
			c0,1.8-0.9,2.5-2.6,2.5c-6.7,0-13.5-0.1-20.2,0c-1.8,0-2.5-0.7-2.5-2.4c0.1-3.4-0.1-6.7,0.1-10.1c0.1-1.3,0.8-2.5,1.6-4.4
			c-5.8-0.4-11.4-0.3-17.4,0c3,5.5,1.6,10.5,1.6,15.4c0,0.5-1.3,1.5-2.1,1.5c-6.8,0.1-13.7,0.2-20.5,0c-0.8,0-2.1-1.5-2.2-2.3
			c-0.3-3.3-0.3-6.7,0-10.1c0.1-0.9,1.3-1.8,2.1-2.5c0.9-0.8,2.3-1.4,2.7-2.3c4.2-10.2,8.3-20.5,12.3-30.8
			C154.8,134,154.5,133.9,154.2,133.9z M166.2,152.1c2.3,0,3.8,0.1,5.3-0.1c0.5-0.1,1.3-1,1.3-1.2c-0.7-2-1.6-4-2.4-6
			c-0.3,0-0.6,0-0.8,0.1C168.5,147,167.6,149.1,166.2,152.1z"/>
		<path fill-rule="evenodd" clip-rule="evenodd" fill="#FFFFFF" d="M411.8,150.3c0,6.4,0,12.9,0,19.3c0,1.1-0.3,2.5-1,3.2
			c-2.6,2.8-5.4,5.6-8.3,8.1c-0.9,0.8-2.5,1.3-3.8,1.3c-7.6,0.1-15.2,0.1-22.8,0c-1.4,0-2.8-1-4.2-1.6c-0.2-0.1-0.3-0.3-0.4-0.4
			c-7-4.9-9.4-11.4-8.6-20.1c0.8-9.5,0.1-19.2,0.2-28.8c0-1.5,1.2-3.1,1.9-4.6c0.2-0.4,0.8-0.7,1-1.1c4.4-6.4,10.4-8.2,17.9-7.4
			c4.9,0.6,9.9-0.1,14.8,0.2c1.9,0.1,3.7,1.4,5.4,2.3c0.7,0.3,1,1.2,1.7,1.7c5.6,3.7,7,9,6.3,15.4
			C411.5,141.9,411.8,146.1,411.8,150.3C411.8,150.3,411.8,150.3,411.8,150.3z M381,150.1c0,3,0,5.9,0,8.9c0,7.9-1.4,8.1,8,8
			c4.1,0,4.7-0.6,4.7-4.6c0-6.9-0.1-13.8,0-20.8c0.1-9.4,0.2-8.5-8.8-8.6c-2.8,0-4,1.2-3.9,4C381.1,141.4,381,145.8,381,150.1z"/>
		<path fill-rule="evenodd" clip-rule="evenodd" fill="#FFFFFF" d="M299.4,118.4c5.5,0,11.1,0,16.6,0c0.4,0,0.8,0,1.2,0
			c3.1,0.2,12.3,9.8,12.3,12.9c0,4.8,0.1,9.7-0.1,14.5c0,1.1-0.9,2.3-1.3,3.4c-0.1,0.2-0.3,0.3-0.4,0.4c-5.2,7.3-12.2,10-21,8.6
			c-1.1-0.2-2.2,0-3.3,0c-0.5,0-1.4,0-1.4,0.2c-0.4,2.3-0.8,4.7-0.9,7c0,0.6,1,1.6,1.6,1.6c1.8,0.2,2.3,1.2,2.3,2.8
			c0,3.3,0,6.5,0.1,9.8c0.1,1.8-0.8,2.6-2.5,2.6c-7,0-14.1,0-21.1-0.1c-1.7,0-2.5-1-2.5-2.6c0-3.3-0.2-6.5,0.1-9.8
			c0.1-0.9,1.3-1.8,2-2.7c0.6-0.8,1.6-1.7,1.7-2.5c0.1-9.7,0.1-19.4,0-29.1c0-0.8-1.1-1.6-1.7-2.4c-0.7-0.9-1.9-1.7-1.9-2.6
			c-0.3-3-0.1-6.1-0.1-9.2c0-2,0.8-2.8,2.8-2.8C287.7,118.4,293.5,118.4,299.4,118.4z M301.1,138c-0.1,5.1-0.1,5.1,3.1,5.2
			c5.7,0.1,6.8-0.4,6.9-3.2c0.2-5.8-0.4-6.8-4.2-6.9C301.3,133.1,301.3,133.1,301.1,138z"/>
		<path fill-rule="evenodd" clip-rule="evenodd" fill="#FFFFFF" d="M346.2,118.4c3.4,0,6.7,0.1,10.1,0c2.1,0,3.1,0.7,3,2.9
			c-0.1,3.1,0,6.1,0.1,9.2c0.1,1.6-0.4,2.3-2,2.6c-0.8,0.2-1.8,1.4-1.8,2.2c-0.1,9.5-0.1,19-0.1,28.5c0,1.8,0.3,3,2.4,3.4
			c0.6,0.1,1.4,1.4,1.4,2.2c0.1,3.5,0,6.9,0.1,10.4c0,1.6-0.7,2.4-2.3,2.4c-7,0-14.1,0-21.1,0c-1.7,0-2.6-0.7-2.5-2.5
			c0.1-3.4-0.1-6.7,0.1-10.1c0.1-0.9,1.3-1.7,2-2.6c0.6-0.7,1.7-1.4,1.7-2.2c0.1-9.7,0-19.4,0-29.1c0-1.4-0.1-2.4-1.9-2.8
			c-0.8-0.2-1.8-1.5-1.8-2.3c-0.2-3.3,0-6.5-0.1-9.8c0-2,0.9-2.6,2.7-2.6C339.4,118.4,342.8,118.4,346.2,118.4
			C346.2,118.4,346.2,118.4,346.2,118.4z"/>
		<path fill-rule="evenodd" clip-rule="evenodd" fill="#FFFFFF" d="M104.2,100.2c3.5,3.3,6.5,6.1,9.5,8.9c-3.9,1.9-9.4,1.1-12.1-1.4
			c-2.3-2.1-4.5-4.2-6.8-6.2c-0.7-0.6-1.4-1.2-2.2-1.5c-4.4-1.4-6.4,0.1-6.4,4.7c0,0.4,0,0.8,0,1.2c0,3.7-3.5,5.7-6.7,3.8
			c-0.6-0.3-0.9-1.5-1-2.2c-0.1-7.1,0-14.2,0-21.4c0-1.8,0.8-2.5,2.5-2.5c8.9,0,17.8,0,26.7,0c2.1,0,3.4,1.2,3.5,3.2
			c0.1,3.3,0.3,6.6-0.1,9.8c-0.1,1.1-1.5,2.3-2.6,3C107.6,100.2,106.3,100,104.2,100.2z M95.2,89.7C95.2,89.8,95.2,89.8,95.2,89.7
			c-2.3,0-4.6-0.1-6.8,0.1c-0.7,0.1-1.4,1-2.1,1.5c0.7,0.5,1.3,1.5,2,1.5c4.5,0.1,9.1,0.1,13.6,0c0.7,0,1.4-1,2.1-1.5
			c-0.8-0.6-1.5-1.5-2.4-1.6C99.5,89.6,97.3,89.7,95.2,89.7z"/>
		<path fill-rule="evenodd" clip-rule="evenodd" fill="#FFFFFF" d="M163.7,93.6c0,5.1-0.2,9.2,0,13.3c0.2,3.5-2,3-4.3,3.2
			c-2.6,0.2-3.2-1-3.2-3.3c0.1-5.9,0-11.9,0.1-17.8c0-1.7,0.5-4.7,0.9-4.8c2.5-0.2,5.7-0.5,7.6,0.7c6,4,11.5,8.6,17.3,13
			c0.6,0.5,1.2,0.8,2.6,1.7c0-4.4,0-8.1,0-11.8c0-3.8,3.2-5.8,6.6-4c0.5,0.3,1,1.3,1,1.9c0.1,7.4,0.1,14.8,0,22.2
			c0,0.6-0.7,1.7-1.1,1.7c-2.8,0.2-5.6,0.9-8.2-1.3c-5.4-4.5-10.9-8.8-16.4-13.1C165.9,94.9,165.2,94.5,163.7,93.6z"/>
		<path fill-rule="evenodd" clip-rule="evenodd" fill="#FFFFFF" d="M358,110c-4,0-7.9-0.1-11.9,0c-2.1,0-3.1-0.6-3-2.9
			c0.1-6.8,0.1-13.7,0-20.5c0-2.4,1-3.1,3.2-3c7.9,0.1,15.8,0.1,23.8,0c2.1,0,3.1,0.6,3.1,2.8c0,2.2-0.7,3.3-3.1,3.2
			c-5.4-0.1-10.9,0-16.3,0c-1.4,0-2.9,0.1-2.5,1.9c0.1,0.7,1.6,1.5,2.5,1.6c2.6,0.2,5.1,0.1,7.7,0.1c2.3,0,2.4,1.5,2.4,3.2
			c0,1.7-0.1,3.2-2.4,3.2c-2.6,0-5.1,0-7.7-0.1c-1.5,0-2.5,0.2-2.6,2c-0.1,1.9,1.1,2.1,2.5,2.1c5.4,0,10.9,0.1,16.3,0
			c2.2,0,3.2,0.6,3.2,3c0,2.4-0.8,3.4-3.3,3.3C366,109.9,362,110,358,110z"/>
		<path fill-rule="evenodd" clip-rule="evenodd" fill="#FFFFFF" d="M135.4,110c-3.9,0-7.7-0.1-11.6,0c-2.2,0.1-3.2-0.7-3.2-3
			c0.1-6.8,0.1-13.7,0-20.5c0-2.2,0.9-2.9,3-2.9c8,0.1,16,0.1,24,0c2.2,0,3,0.8,2.9,3c0,2.1-0.6,3.1-2.9,3.1
			c-5.3-0.1-10.7-0.1-16,0.1c-1.1,0-3,1-3.1,1.6c-0.2,2.2,1.8,1.9,3.2,1.9c2.4,0.1,4.7,0,7.1,0c2.2,0,2.6,1.2,2.6,3.1
			c0,1.8-0.1,3.4-2.6,3.4c-2.6,0-5.2-0.2-7.7,0.1c-1,0.1-1.8,1.2-2.7,1.8c0.9,0.7,1.7,1.9,2.6,2c5.3,0.2,10.7,0.2,16,0.1
			c2.6-0.1,3.4,0.9,3.5,3.4c0,2.6-1.2,2.9-3.3,2.9C143.3,110,139.4,110,135.4,110z"/>
		<path fill-rule="evenodd" clip-rule="evenodd" fill="#FFFFFF" d="M311,92c8.1-4.4,14.8-11,25.1-7.5c-5.2,3.4-10.1,6.6-15.1,9.9
			c5.4,5.1,10.5,9.8,15.6,14.6c-2.5,1.7-8.7,1.5-10.8-0.4c-3.1-2.7-6.1-5.7-9.3-8.3c-0.9-0.7-2.6-1.2-3.5-0.8
			c-0.9,0.4-1.5,2-1.9,3.2c-0.3,1.1-0.2,2.4-0.1,3.5c0.4,3-0.8,4-3.8,3.9c-2.9,0-4.1-0.7-4-3.8c0.2-6.5,0.1-13.1,0-19.6
			c0-2.6,1.2-3.3,3.5-3.1c2.1,0.1,4.6-0.5,4.4,3.1C310.9,88.1,311,89.6,311,92z"/>
		<path fill-rule="evenodd" clip-rule="evenodd" fill="#FFFFFF" d="M432.7,109.5c-5.8,1.4-7.3,0.8-10.3-3.3
			c-0.6-0.8-1.9-1.5-2.9-1.6c-3.4-0.2-7-0.4-10.4,0c-1.4,0.2-3,1.6-4,2.8c-1.6,2-6.7,3.7-8.9,2.4c-0.4-0.2-0.6-1.4-0.4-1.9
			c4.6-7.6,9.2-15.2,14-22.7c1.4-2.2,7-2.4,8.3-0.2c4.8,7.7,9.5,15.5,14.2,23.2C432.7,108.5,432.6,109,432.7,109.5z M417.6,98.1
			c-1-1.7-1.5-3-2.3-4c-0.3-0.4-1.7-0.4-2-0.1c-0.9,1.1-1.6,2.4-2.6,4.1C413.1,98.1,415,98.1,417.6,98.1z"/>
		<path fill-rule="evenodd" clip-rule="evenodd" fill="#FFFFFF" d="M350,45.1c-8.7-1.7-17.4-3.4-26.1-5.3
			c-20.5-4.3-41.1-8.5-61.6-13c-4.5-1-8.7-0.9-13.1,0c-22.1,4.6-44.2,9.2-66.3,13.7c-8.6,1.8-17.2,3.5-25.8,5.3
			c-0.1-0.2-0.1-0.5-0.2-0.7c5.3-1.3,10.6-2.7,15.9-4c24.9-5.8,49.8-11.3,74.6-17.4c6.9-1.7,13.2-0.8,19.7,0.7
			c27.3,6.6,54.7,13.1,82,19.6c0.4,0.1,0.7,0.3,1.1,0.4C350.2,44.7,350.1,44.9,350,45.1z"/>
		<path fill-rule="evenodd" clip-rule="evenodd" fill="#FFFFFF" d="M82.1,193.9c107.6,0,215.3,0,322.9,0c0,0.3,0,0.6,0,0.8
			c-107.6,0-215.3,0-322.9,0C82.1,194.4,82.1,194.2,82.1,193.9z"/>
		<path fill-rule="evenodd" clip-rule="evenodd" fill="#FFFFFF" d="M216.9,83.6c4.6,0,9.1,0,13.7,0c2.1,0,3.4,0.3,3.3,2.9
			c0,2.6-1.2,3.2-3.5,3.1c-2.4-0.1-4.7,0-7.1,0c-1.7,0-2.4,0.6-2.4,2.5c0.2,4.9,0,9.9,0.1,14.8c0,2.3-0.8,3.3-3.1,3.1
			c-0.7-0.1-1.4-0.1-2.1,0c-2.8,0.3-3.9-0.8-3.7-3.7c0.2-4.6-0.1-9.3,0.1-13.9c0.1-2.2-0.7-2.8-2.7-2.8c-2.5,0.1-4.9,0-7.4,0
			c-2.3,0-2.5-1.4-2.5-3.2c0-1.8,0.5-2.8,2.5-2.8C207,83.7,212,83.7,216.9,83.6C216.9,83.7,216.9,83.6,216.9,83.6z"/>
		<path fill-rule="evenodd" clip-rule="evenodd" fill="#FFFFFF" d="M268.4,110c-4,0-7.9-0.1-11.9,0c-2.3,0.1-3.2-0.7-3.2-3.1
			c0.1-6.8,0.1-13.6,0-20.5c-0.1-3.4,2.3-2.8,4.2-2.9c2.1-0.1,4-0.2,3.9,2.9c-0.1,4.7,0.1,9.5-0.1,14.2c-0.1,2.2,0.7,3,2.9,3
			c5.2-0.1,10.5,0.1,15.7-0.1c2.8-0.1,3.3,1.2,3.4,3.6c0.1,2.7-1.5,2.8-3.4,2.8C276.1,110,272.3,110,268.4,110
			C268.4,110,268.4,110,268.4,110z"/>
		<path fill-rule="evenodd" clip-rule="evenodd" fill="#FFFFFF" d="M287.2,96.8c0-3.5,0.1-6.9,0-10.4c-0.1-2,0.8-2.9,2.8-2.8
			c0.3,0,0.6,0,0.9,0c5.3-0.1,5.3-0.1,5.3,5.3c0,5.9-0.1,11.8,0,17.8c0,2.4-0.9,3.5-3.3,3.3c-0.6-0.1-1.2,0-1.8,0c-3.8,0-4-0.2-4-4
			C287.1,103,287.1,99.9,287.2,96.8C287.1,96.8,287.2,96.8,287.2,96.8z"/>
		<path fill-rule="evenodd" clip-rule="evenodd" fill="#FFFFFF" d="M270.8,67.2c0,7.6,1.6,6.8-6.5,6.8c-7.5,0-7.5,0-7.5-7.5
			c0-7.6-1-6.8,6.8-6.8C270.6,59.8,270.6,59.8,270.8,67.2z"/>
		<path fill-rule="evenodd" clip-rule="evenodd" fill="#FFFFFF" d="M237.6,66.2c0.3-6.8,0.3-6.9,7.2-6.8c7.7,0.1,7-1.4,6.9,6.9
			c0,1,0,2,0,3c0.1,4.5,0.8,4.4-4.5,4.4c-2.5,0-4.9,0-7.4,0c-1.6,0-2.3-0.6-2.2-2.3C237.7,69.6,237.6,67.9,237.6,66.2z"/>
		<path fill-rule="evenodd" clip-rule="evenodd" fill="#FFFFFF" d="M237.7,47.8c0-7,0-7,7-6.8c7.1,0.1,7.1,0.1,7,7.2
			c-0.1,8.3,1,7-7.1,7C237.7,55.2,237.7,55.1,237.7,47.8z"/>
		<path fill-rule="evenodd" clip-rule="evenodd" fill="#FFFFFF" d="M257.4,47.9c0-7,0-7.1,7-7c7.9,0.1,6.8-1.2,6.9,6.9
			c0,7.4,0,7.4-7.3,7.4C257.4,55.2,257.4,55.2,257.4,47.9z"/>
		<path fill-rule="evenodd" clip-rule="evenodd" d="M166.2,152.1c1.4-3,2.3-5.1,3.3-7.2c0.3,0,0.6,0,0.8-0.1c0.8,2,1.7,4,2.4,6
			c0.1,0.2-0.8,1.2-1.3,1.2C170,152.2,168.5,152.1,166.2,152.1z"/>
		<path fill-rule="evenodd" clip-rule="evenodd" d="M381,150.1c0-4.4,0.1-8.7,0-13.1c0-2.7,1.2-4,3.9-4c9,0.1,8.9-0.8,8.8,8.6
			c-0.1,6.9,0,13.8,0,20.8c0,4-0.6,4.6-4.7,4.6c-9.4,0.1-8-0.1-8-8C381,156,381,153.1,381,150.1z"/>
		<path fill-rule="evenodd" clip-rule="evenodd" d="M301.1,138c0.1-4.9,0.1-4.9,5.8-4.8c3.8,0.1,4.4,1.1,4.2,6.9
			c-0.1,2.8-1.3,3.3-6.9,3.2C301,143.1,301,143.1,301.1,138z"/>
		<path fill-rule="evenodd" clip-rule="evenodd" d="M95.2,89.7c2.2,0,4.4-0.2,6.5,0.1c0.8,0.1,1.6,1.1,2.4,1.6
			c-0.7,0.5-1.4,1.5-2.1,1.5c-4.5,0.1-9.1,0.1-13.6,0c-0.7,0-1.4-1-2-1.5c0.7-0.5,1.4-1.5,2.1-1.5C90.6,89.7,92.9,89.8,95.2,89.7
			C95.2,89.8,95.2,89.8,95.2,89.7z"/>
		<path fill-rule="evenodd" clip-rule="evenodd" d="M417.6,98.1c-2.5,0-4.5,0-6.9,0c1-1.7,1.7-3,2.6-4.1c0.3-0.3,1.7-0.3,2,0.1
			C416.1,95.1,416.6,96.3,417.6,98.1z"/>
	</g>
</g>
<g id="Layer_26">
</g>
<g id="Layer_25">
</g>
<g id="Layer_22">
</g>
</svg>
