<?xml version="1.0" encoding="utf-8"?>
<!-- Generator: Adobe Illustrator 16.0.4, SVG Export Plug-In . SVG Version: 6.00 Build 0)  -->
<svg version="1.2" baseProfile="tiny" xmlns="http://www.w3.org/2000/svg" xmlns:xlink="http://www.w3.org/1999/xlink" x="0px"
	 y="0px" width="259.8px" height="72.8px" viewBox="0 0 259.8 72.8" xml:space="preserve">
<g id="Layer_1">
</g>
<g id="Layer_7">
	<g id="shotzu">
	</g>
</g>
<g id="Layer_12">
</g>
<g id="Layer_2">
	<g id="shotzu_1_">
		<g id="shotzu_x5F_logo_2_">
		</g>
	</g>
</g>
<g id="Layer_3">
</g>
<g id="Layer_4">
	<g id="relax_x5F_icon">
	</g>
</g>
<g id="Layer_4_copy">
	<g id="photo_x5F_icon">
	</g>
</g>
<g id="Layer_4_copy_2">
	<g id="form_x5F_icon">
	</g>
</g>
<g id="Layer_9">
	<g id="shotzu_x5F_logo_1_">
		<g id="logo">
		</g>
	</g>
	<g id="shotzu_x5F_logo" display="none">
	</g>
	<g id="shotzu_x5F_logo_3_" display="none">
	</g>
</g>
<g id="Layer_13">
	<g id="logo_1_">
	</g>
</g>
<g id="Layer_14">
	<g id="Photographer_1_">
		<g id="Layer_16">
		</g>
	</g>
</g>
<g id="Layer_15">
</g>
<g id="Isolation_Mode">
</g>
<g id="Photographer">
</g>
<g id="Layer_18">
</g>
<g id="Layer_19">
</g>
<g id="Layer_20">
</g>
<g id="Layer_21">
</g>
<g id="Layer_23">
</g>
<g id="Layer_24">
</g>
<g id="Layer_26">
</g>
<g id="Layer_25">
</g>
<g id="Layer_22">
</g>
<g id="Layer_27">
	<g>
		<g>
			<path fill-rule="evenodd" d="M156.8,71.1c2.8-14.8,5.5-29.6,8.2-44.5c2.4,0,5,0,7.6,0c-0.1,1.5-0.3,2.9-0.4,4.2
				c0.7-0.6,1.4-1.2,2.1-1.8c2.3-2,4.8-3.1,7.9-2.9c4.4,0.2,7.5,2.9,8.3,7.6c1.3,8.1-0.7,15.3-6.6,21.2c-3.7,3.7-8.4,5-13.6,3.9
				c-0.7-0.2-1.4-0.5-2.2-0.7c-0.8,4.4-1.6,8.7-2.5,13.1C162.7,71.1,159.8,71.1,156.8,71.1z M181.7,38.8c-0.1-0.7-0.1-1.8-0.4-2.8
				c-0.6-2.1-2.5-3.1-4.5-2.2c-0.7,0.3-1.4,0.7-1.9,1.2c-1.7,1.5-2.7,3.4-3.2,5.5c-0.8,3.3-1.3,6.7-1.9,10.1c-0.1,0.3,0.3,0.8,0.5,1
				c2.1,1.4,4.8,1.1,6.6-0.8C180.1,47.5,181.2,43.5,181.7,38.8z"/>
			<path fill-rule="evenodd" d="M95.5,58.5c1-5.4,2-10.6,3-15.8c1.8-9.7,3.7-19.3,5.5-29c0.1-0.7,0.3-1,1.1-1c2.7,0,5.3,0,8.1,0
				c-1.1,6-2.3,11.8-3.4,17.9c0.9-0.8,1.6-1.5,2.4-2.1c2.5-2,5.5-2.8,8.7-2.3c3.5,0.5,5.9,3.4,5.7,7.5c-0.1,3.1-0.6,6.2-1.2,9.3
				c-0.8,4.9-1.8,9.8-2.7,14.7c-0.1,0.3-0.1,0.5-0.2,0.8c-3,0-5.9,0-8.9,0c0.4-2.2,0.8-4.3,1.2-6.5c0.8-4.8,1.7-9.6,2.5-14.4
				c0.1-0.6,0.1-1.2,0-1.8c-0.3-2-1.8-2.9-3.8-2.3c-1.6,0.5-2.6,1.7-3.5,3c-1.6,2.4-2.3,5.2-2.8,8.1c-0.8,4.4-1.7,8.8-2.5,13.1
				c-0.1,0.3-0.4,0.7-0.6,0.7C101.2,58.5,98.4,58.5,95.5,58.5z"/>
			<path fill-rule="evenodd" d="M228.3,72.8c-0.8-2.5-1.6-5-2.4-7.5c0.6-0.2,1.2-0.5,1.7-0.7c3.3-1.5,6-3.6,7.9-6.7
				c0.4-0.7,0.6-1.4,0.4-2.3c-1.7-9.3-3.5-18.6-5.2-27.9c0-0.2-0.1-0.5-0.1-0.8c3.1,0,6.2,0,9.4,0c0.7,7.1,1.5,14.1,2.2,21.2
				c0.1,0,0.1,0,0.2,0c0.2-0.5,0.3-1.1,0.5-1.6c2.4-6.3,4.8-12.7,7.2-19c0.1-0.3,0.5-0.7,0.7-0.7c2.9,0,5.9,0,8.9,0
				c-1.2,2.7-2.4,5.2-3.6,7.7c-3.2,6.8-6.4,13.7-9.8,20.5c-2.4,4.7-5.2,9.1-9.1,12.8C234.9,70.2,231.1,72.3,228.3,72.8z"/>
			<path fill-rule="evenodd" d="M159,38.7c-0.2,5.9-1.7,11-5.6,15.1c-4,4.3-9,6-14.7,5.1c-5.4-0.8-9.2-4.9-9.6-10.6
				c-0.5-6.8,1.4-12.9,6.4-17.7c4.1-3.9,9.2-5.3,14.7-4.1c4.8,1,8.3,5.2,8.6,10.4C158.9,37.6,158.9,38.3,159,38.7z M149.8,38.4
				c-0.1-0.5-0.1-1.4-0.3-2.2c-0.8-3.1-3.9-4.3-6.4-2.4c-0.7,0.5-1.3,1.2-1.8,1.9c-1.7,2.5-2.5,5.3-2.9,8.2
				c-0.3,1.9-0.4,3.9,0.4,5.7c1,2.4,3.7,3.3,5.8,1.8c1-0.7,1.8-1.6,2.4-2.6C148.9,45.8,149.6,42.4,149.8,38.4z"/>
			<path fill-rule="evenodd" d="M209.8,26.7c1.4,0,2.7,0,4,0c0.4-1.5,0.7-3,1.1-4.5c1.5-4.8,4.3-8.4,9.4-9.7
				c2.9-0.7,5.7-0.6,8.6,0.3c-0.6,2.4-1.2,4.7-1.8,7c-2-0.5-3.9-0.8-5.6,0.5c-2,1.6-2.4,3.8-2.9,6.3c2.1,0,4.1,0,6.2,0
				c-0.4,2.3-0.8,4.5-1.2,6.7c-2.1,0-4,0-6.1,0c-0.5,2.7-1,5.3-1.5,8c-1,5.4-2.1,10.9-3.1,16.3c-0.1,0.3-0.4,0.8-0.7,0.8
				c-2.8,0.1-5.5,0-8.4,0c1.6-8.4,3.1-16.6,4.7-25c-1.4,0-2.7,0-4.1,0C208.9,31.2,209.3,29,209.8,26.7z"/>
			<path fill-rule="evenodd" d="M73.2,50.8c2.4,0.6,4.6,1.1,6.8,1.6c0.6,0.1,1.4,0,2-0.2c2.5-0.7,3.3-3.3,1.4-5.1
				c-0.8-0.8-1.9-1.3-2.7-2c-1.3-1-2.7-1.9-3.8-3.1c-3.1-3.5-2.5-9.1,1.2-12.4c2-1.8,4.5-2.8,7.2-3.2c3-0.4,5.9-0.3,8.8,0.6
				c0.5,0.2,1,0.4,1.6,0.6c-0.7,2.2-1.4,4.3-2,6.1c-2.1-0.3-4-0.6-6-0.9c-0.5-0.1-1.1,0.1-1.6,0.2c-2.4,0.8-2.9,3.1-1.1,4.8
				c0.6,0.5,1.2,0.9,1.9,1.3c1,0.7,2.1,1.3,3.1,2.1c6.2,4.6,3.8,12.5-0.6,15.3c-3,2-6.4,2.6-9.9,2.5c-2.6-0.1-5.1-0.5-7.5-1.7
				c-0.7-0.3-0.9-0.7-0.6-1.4C72.1,54.2,72.7,52.4,73.2,50.8z"/>
			<path fill-rule="evenodd" d="M191.2,58.5c2-10.7,4-21.2,6-31.7c3,0,6,0,9,0c-0.2,1.1-0.4,2-0.6,3c-1.8,9.2-3.6,18.4-5.3,27.7
				c-0.1,0.7-0.4,1-1.2,1C196.6,58.5,194,58.5,191.2,58.5z"/>
			<path fill-rule="evenodd" d="M203.7,13.2c2.7,0,4.6,1.8,4.6,4.4c0,3-2.2,5.2-5.3,5.2c-2.6,0-4.4-1.7-4.4-4.4
				C198.5,15.6,200.8,13.3,203.7,13.2z"/>
		</g>
		<g>
			<path fill-rule="evenodd" d="M0,62.9C1.7,49,3.4,35.7,5,22.3c0.3-2.4,1.8-3.3,3.7-3.6c3.5-0.6,5.6-2.4,6.3-6.1
				c0.4-2.1,1.6-4.2,2.9-6.1c2.4-3.7,5.6-7.5,10.3-6.3c3.8,1,8.4,2.1,10.3,6.8c0.4,1,2.1,1.5,3.7,2.6c-1,19.6-2,39.9-3,60.7
				C26,67.9,13.2,65.4,0,62.9z M11.2,50c-2.3,5-2.4,5.5-0.5,7.1c4.8,4.2,12.6,3.9,16.2-0.5c4-4.9,3.2-12-1.9-16.3
				c-1.1-0.9-2.5-1.6-3.4-2.6c-0.7-0.9-1.6-2.5-1.2-3.3c0.5-1,2-2,3.2-2.2c1.9-0.2,3.9,0.3,6.1,0.5c0.8-2.5,1.6-5,2.4-7.5
				c-4-1.7-7.8-1.4-11.4,0c-8.2,3-11.4,14.5-3.6,20.2c0.8,0.5,1.7,1.2,2,2c0.5,1.2,1,3,0.5,3.9c-0.5,0.8-2.5,1.2-3.7,0.9
				C14.3,51.8,12.8,50.7,11.2,50z M27.4,2.5c-4.9,0.2-9.9,6-10.8,14.5c2.3-1.7,4.4-2.5,5.4-4.1C24.2,9.6,25.7,5.9,27.4,2.5z
				 M24.3,12.6c0.3,0.2,0.7,0.5,1,0.7c7.1-1.9,7.7-2.8,4.3-9C27.7,7.4,26,10,24.3,12.6z M34.1,4.5c-0.3,0.2-0.6,0.3-0.8,0.5
				c0.2,1.8,0.3,3.6,0.5,5.8c1.2-0.5,2.2-0.8,3.7-1.4C36.2,7.5,35.1,6,34.1,4.5z"/>
			<path fill-rule="evenodd" d="M61.6,65.7c-7,1.6-13.7,3-21.1,4.7c1-20.7,2-41,2.9-60.5c3.2,1.1,6.2,2.1,9.1,3.3
				c0.8,0.3,1.6,1.4,1.8,2.2C56.7,31.9,59.1,48.6,61.6,65.7z"/>
		</g>
	</g>
</g>
</svg>
